<svg width="19" height="18" viewBox="0 0 19 18" fill="none" xmlns="http://www.w3.org/2000/svg">
<path fill-rule="evenodd" clip-rule="evenodd" d="M15.7446 2.96933C12.2815 -0.362248 6.66569 -0.362247 3.2182 2.95432C-0.244886 6.2859 -0.244886 11.6885 3.2182 15.02C6.66569 18.3366 12.2815 18.3366 15.7446 15.005C19.1921 11.6885 19.1921 6.2859 15.7446 2.96933ZM13.4827 6.52602L12.0319 5.13036L9.4736 7.59152L6.91528 5.13036L5.46453 6.52602L8.02285 8.98718L5.46453 11.4484L6.91528 12.844L9.4736 10.3828L12.0319 12.844L13.4827 11.4484L10.9244 8.98718L13.4827 6.52602Z" fill="#FF6B00"/>
</svg>
