<svg width="15" height="14" viewBox="0 0 15 14" fill="none" xmlns="http://www.w3.org/2000/svg">
<path d="M13.1072 8.6213L15 6.98351L13.1203 5.27977C13.0229 5.19 12.9798 5.05627 13.0116 4.92803L13.557 2.6582L11.0907 2.24784C10.9708 2.22769 10.8677 2.15258 10.8152 2.04632L9.80885 0L7.7024 1.0424C7.59933 1.09552 7.47564 1.09552 7.37069 1.04606L5.18553 0.00732792L4.24475 2.09212C4.19415 2.20754 4.08546 2.28814 3.95802 2.30646L1.43366 2.68019L2.009 5.01963C2.04273 5.15153 1.99775 5.28893 1.8928 5.3787L0 7.01649L1.87969 8.72023C1.97714 8.81 2.02024 8.94373 1.98838 9.07197L1.44303 11.3436L3.9093 11.7522C4.02924 11.7723 4.13231 11.8474 4.18478 11.9537L5.19115 14L7.29573 12.9576C7.40067 12.9063 7.52436 12.9045 7.62931 12.9539L9.81447 13.9927L10.7552 11.9079C10.8058 11.7925 10.9145 11.7119 11.042 11.6935L13.5663 11.3198L12.991 8.98037C12.9573 8.84847 13.0023 8.71107 13.1072 8.6213Z" fill="#5395E9"/>
<path fill-rule="evenodd" clip-rule="evenodd" d="M11 5.17999L6.53805 11L4 7.49845L4.8323 6.3502L6.56106 8.73523L10.1914 4L11 5.17999Z" fill="#FAFAFA"/>
</svg>
