<svg width="10" height="14" viewBox="0 0 10 14" fill="none" xmlns="http://www.w3.org/2000/svg">
<path class="chevron-right" opacity="0.5" d="M1.78906 1.60352L7.84638 7.18369L1.78906 12.7639" stroke="#535458" stroke-width="2.34955"/>
</svg>
