<svg viewBox="0 0 22 22" fill="none" xmlns="http://www.w3.org/2000/svg">
	<path d="M15.206 0.814568C10.3623 -1.14026 4.76013 0.521344 1.84897 4.74866C-1.01326 8.9271 -0.499525 14.4739 3.02322 18.0903C2.77858 19.1411 2.28931 20.4117 1.31077 21.047C1.13953 21.1692 1.06614 21.3647 1.0906 21.5602C1.13953 21.7556 1.28631 21.9023 1.50648 21.9511C1.55541 21.9511 1.92236 22 2.50949 22C3.61034 22 5.44511 21.8045 7.03523 20.6805C8.28287 21.1448 9.6039 21.3891 10.9739 21.3891H10.9983C16.2335 21.3891 20.7593 17.7727 21.7867 12.7879C22.8142 7.80307 20.0498 2.76939 15.206 0.814568ZM7.13309 7.7542H12.6618C12.9309 7.7542 13.1511 7.97412 13.1511 8.24291C13.1511 8.5117 12.9309 8.73162 12.6618 8.73162H7.13309C6.86399 8.73162 6.64382 8.5117 6.64382 8.24291C6.64382 7.97412 6.86399 7.7542 7.13309 7.7542ZM15.9889 13.1544H7.13309C6.86399 13.1544 6.64382 12.9345 6.64382 12.6657C6.64382 12.3969 6.86399 12.177 7.13309 12.177H15.9889C16.258 12.177 16.4781 12.3969 16.4781 12.6657C16.4781 12.9345 16.258 13.1544 15.9889 13.1544Z" fill="#EE93F8" />
</svg>
