
<svg width="22" height="20" viewBox="0 0 22 20" fill="none" xmlns="http://www.w3.org/2000/svg">
<path d="M11.1328 0L14.4141 6.625L21.6328 7.625L16.3828 12.75L17.5641 20L11.1328 16.625L4.70156 20L5.88281 12.75L0.632812 7.625L7.85156 6.625L11.1328 0Z" fill="#FF603C"/>
</svg>
