<svg width="20" height="21" viewBox="0 0 18 20" fill="none" xmlns="http://www.w3.org/2000/svg">
<path d="M17.0312 5.04954V5.43201C17.0313 5.56297 17.0043 5.69246 16.9521 5.81206C16.8999 5.93167 16.8237 6.0387 16.7284 6.12619C16.6331 6.21369 16.5209 6.27969 16.399 6.3199C16.2771 6.36011 16.1483 6.37363 16.0209 6.35958H16.0017C15.7775 6.33569 15.5699 6.22762 15.4191 6.05628C15.2683 5.88494 15.185 5.6625 15.1854 5.43201V5.04954C15.1854 4.38594 14.9276 3.74952 14.4686 3.28028C14.0097 2.81104 13.3872 2.54742 12.7382 2.54742H12.5791C11.9301 2.54742 11.3077 2.81104 10.8487 3.28028C10.3898 3.74952 10.132 4.38594 10.132 5.04954V6.44537C9.51843 6.37924 8.90839 6.32741 8.28611 6.29703V5.04597C8.28703 3.88289 8.73921 2.7677 9.5434 1.94511C10.3476 1.12253 11.4381 0.659745 12.5756 0.658326H12.7347C13.2989 0.658091 13.8575 0.7715 14.3788 0.992074C14.9001 1.21265 15.3737 1.53607 15.7727 1.94385C16.1717 2.35164 16.4882 2.8358 16.7042 3.36868C16.9201 3.90157 17.0312 4.47273 17.0312 5.04954ZM13.3028 9.23523V15.9552C13.303 16.1844 13.2249 16.4066 13.0819 16.5831C12.9389 16.7597 12.74 16.8796 12.5197 16.9221L11.9359 17.0347C10.2197 17.3665 8.47698 17.5334 6.7304 17.5333C4.98325 17.5335 3.2399 17.3666 1.52317 17.0347L0.939346 16.9221C0.71903 16.8796 0.520174 16.7597 0.377176 16.5831C0.234178 16.4066 0.15603 16.1844 0.15625 15.9552V9.23523C0.15603 9.00599 0.234178 8.78388 0.377176 8.60732C0.520174 8.43076 0.71903 8.31085 0.939346 8.26834L1.025 8.25225C4.79516 7.52298 8.66564 7.52298 12.4358 8.25225L12.5215 8.26834C12.7415 8.31122 12.9399 8.43129 13.0826 8.60781C13.2252 8.78434 13.3031 9.00624 13.3028 9.23523ZM9.13912 11.0225L8.66017 10.5328C8.58123 10.4546 8.47603 10.4103 8.36616 10.409C8.25629 10.4077 8.15008 10.4494 8.06936 10.5256L6.09414 12.3128L5.17645 11.5783C5.09364 11.5119 4.9899 11.4789 4.88489 11.4855C4.77988 11.4921 4.68087 11.5378 4.60661 11.614L4.12941 12.1037C4.05291 12.1825 4.00827 12.2879 4.00438 12.3989C4.00049 12.5099 4.03765 12.6182 4.10843 12.7024L5.78649 14.6863C5.82684 14.7328 5.87636 14.77 5.9318 14.7955C5.98724 14.8209 6.04734 14.8341 6.10812 14.8341C6.16891 14.8341 6.229 14.8209 6.28444 14.7955C6.33988 14.77 6.38941 14.7328 6.42975 14.6863L9.1531 11.6337C9.22775 11.55 9.26796 11.4402 9.26535 11.327C9.26275 11.2138 9.21753 11.106 9.13912 11.026V11.0225Z" fill="#17CA80"/>
</svg>
