<svg width="42" height="28" viewBox="0 0 42 28" fill="none" xmlns="http://www.w3.org/2000/svg">
            <path d="M34.9116 0.449707H7.5734C4.07893 0.449707 1.24609 3.22097 1.24609 6.63949V21.2431C1.24609 24.6616 4.07893 27.4329 7.5734 27.4329H34.9116C38.4061 27.4329 41.239 24.6616 41.239 21.2431V6.63949C41.239 3.22097 38.4061 0.449707 34.9116 0.449707Z" fill="#FDFDFD" stroke="#D7D7D7" stroke-width="0.519931" />
            <path d="M18.5285 17.6216C18.6386 17.7637 18.7464 17.8971 18.8473 18.0323C18.884 18.0796 18.9219 18.1016 18.9838 18.1016C19.6124 18.0999 20.2409 18.0999 20.8694 18.1016C20.9486 18.1016 20.9749 18.0746 20.9726 17.9985C20.9692 17.8159 20.975 17.6318 20.9715 17.4493C20.9692 17.3782 20.9956 17.3597 21.0667 17.3597C21.2663 17.358 21.467 17.358 21.6677 17.3411C21.7755 17.3327 21.8822 17.2904 21.998 17.2617C21.998 17.4916 21.998 17.718 21.998 17.9461C21.998 18.1033 21.9751 18.1016 22.1563 18.1016C22.5302 18.1016 22.9019 18.0999 23.2758 18.1033C23.3572 18.1033 23.3893 18.0796 23.3859 17.9968C23.3813 17.8786 23.3847 17.7602 23.3847 17.6182C23.504 17.7602 23.6107 17.8819 23.7105 18.0104C23.7621 18.0779 23.8183 18.1033 23.9054 18.1033C26.0973 18.1016 28.2926 18.0999 30.4844 18.1033C30.7998 18.1033 31.1015 18.0627 31.3791 17.8802C31.3825 17.9123 31.386 17.936 31.386 17.9597C31.386 20.0164 31.3859 22.0714 31.3871 24.1282C31.3871 24.2127 31.3596 24.2296 31.2793 24.2296C24.4698 24.2278 17.6602 24.2278 10.8495 24.2296C10.7635 24.2296 10.7383 24.2076 10.7383 24.1215C10.7394 20.7583 10.7394 17.3952 10.7383 14.0321C10.7383 13.9527 10.7589 13.9239 10.8427 13.9256C11.0961 13.9307 11.3473 13.9256 11.6008 13.929C11.665 13.929 11.7006 13.9087 11.7235 13.8479C11.766 13.7313 11.8176 13.6181 11.8612 13.5031C11.8795 13.4523 11.9093 13.4355 11.9644 13.4372C12.0974 13.4406 12.2282 13.4406 12.3601 13.4372C12.4243 13.4355 12.4518 13.4609 12.4725 13.515C12.5161 13.6315 12.5677 13.7447 12.6124 13.8596C12.6308 13.9087 12.6617 13.9324 12.7156 13.9273C12.7374 13.9256 12.7615 13.9273 12.7845 13.9273C15.2849 13.9273 17.7852 13.9273 20.2856 13.9273C20.4393 13.9273 20.4393 13.9273 20.4393 13.7768C20.4393 13.6789 20.4393 13.5791 20.4393 13.4812C20.4393 13.476 20.4405 13.471 20.4462 13.449C20.5322 13.5521 20.624 13.6416 20.6905 13.7464C20.7857 13.8952 20.9096 13.9357 21.0839 13.9323C21.631 13.9206 22.1804 13.9273 22.7287 13.9273C22.9546 13.9273 22.9546 13.9273 22.9546 13.711C22.9546 13.6789 22.9546 13.6451 22.9546 13.6011C22.9821 13.6181 22.9993 13.6265 23.0142 13.6366C23.2608 13.8107 23.535 13.907 23.8378 13.9137C24.2782 13.9223 24.7209 13.9223 25.1625 13.929C25.2256 13.9307 25.2554 13.9036 25.2761 13.8495C25.3208 13.7313 25.3678 13.6129 25.4206 13.498C25.4332 13.471 25.4779 13.4422 25.5066 13.4406C25.6477 13.4338 25.7876 13.4338 25.9287 13.4406C25.9597 13.4422 26.001 13.4727 26.0147 13.4997C26.0698 13.6146 26.1168 13.7313 26.1627 13.8495C26.1833 13.9053 26.2143 13.9273 26.2762 13.9273C26.9059 13.9256 27.5344 13.9256 28.163 13.9273C28.2387 13.9273 28.2628 13.9003 28.2616 13.8275C28.2559 13.6856 28.2593 13.542 28.2593 13.3747C28.3683 13.5403 28.4658 13.6856 28.5575 13.8343C28.5988 13.9019 28.6481 13.929 28.7319 13.929C29.131 13.9256 29.529 13.9256 29.9282 13.929C30.0107 13.929 30.0371 13.9036 30.0371 13.8225C30.0348 12.822 30.0348 11.8233 30.0371 10.8227C30.0371 10.7483 30.0211 10.7196 29.9373 10.7213C29.5267 10.7265 29.115 10.723 28.7055 10.723C28.678 10.723 28.6481 10.7247 28.6126 10.7265C28.6126 10.9005 28.6126 11.0712 28.6126 11.2401C28.6069 11.2418 28.6 11.2436 28.5954 11.2453C28.4968 11.0965 28.3958 10.9478 28.3006 10.7957C28.2662 10.7416 28.2318 10.7196 28.1641 10.7196C27.7478 10.723 27.3326 10.723 26.9162 10.7196C26.8382 10.7196 26.8199 10.7433 26.8199 10.816C26.8233 11.0898 26.821 11.3619 26.8096 11.6407C26.7717 11.5528 26.7316 11.4667 26.6937 11.3787C26.6088 11.1844 26.5228 10.9917 26.4402 10.7974C26.4184 10.7433 26.3909 10.7196 26.3267 10.7213C25.5169 10.723 24.7072 10.7179 23.8974 10.7265C23.5877 10.7298 23.3021 10.8295 23.0475 11.007C23.0211 11.0256 22.997 11.0441 22.9558 11.0745C22.9558 10.9816 22.95 10.9022 22.958 10.8227C22.9626 10.745 22.9362 10.723 22.856 10.723C22.146 10.7265 21.4383 10.7247 20.7283 10.7247C19.0113 10.7247 17.2955 10.7265 15.5785 10.723C15.4833 10.723 15.4443 10.7517 15.4168 10.838C15.356 11.0273 15.2849 11.2131 15.2114 11.4227C15.1472 11.2436 15.0887 11.0864 15.0337 10.9292C14.9614 10.7265 14.9614 10.7265 14.7412 10.7265C14.2813 10.7265 13.8225 10.7281 13.3625 10.7247C13.28 10.7247 13.2616 10.7517 13.2628 10.8261C13.2662 11.0982 13.265 11.3703 13.2524 11.6457C13.1458 11.4007 13.0391 11.1573 12.9324 10.9123C12.8533 10.7281 12.8533 10.7265 12.6537 10.7265C12.305 10.7265 11.9587 10.7298 11.6111 10.7247C11.5262 10.723 11.485 10.7467 11.4528 10.8261C11.2303 11.3416 11.0009 11.8604 10.7761 12.3792C10.7693 12.3928 10.7601 12.4063 10.7417 12.4417C10.7417 12.3911 10.7417 12.3641 10.7417 12.337C10.7417 9.5941 10.7417 6.84949 10.7417 4.10667C10.7417 3.97314 10.7417 3.97314 10.8759 3.97314C17.6671 3.97314 24.4594 3.97314 31.2529 3.97314C31.386 3.97314 31.386 3.97314 31.386 4.10667C31.386 7.66072 31.386 11.2166 31.386 14.7706C31.386 14.8973 31.386 14.8973 31.2552 14.8973C27.1812 14.8973 23.1072 14.8973 19.0331 14.8956C18.9471 14.8956 18.8909 14.9159 18.8404 14.9886C18.751 15.1153 18.6489 15.2337 18.5445 15.3672C18.4528 15.2505 18.3587 15.1458 18.283 15.0291C18.2142 14.9243 18.1305 14.8939 18.0055 14.8956C16.9583 14.9008 15.9088 14.8991 14.8616 14.8991C14.7423 14.8991 14.7423 14.8991 14.7423 15.019C14.7423 16.0077 14.7423 16.9963 14.7423 17.985C14.7423 18.1033 14.7423 18.1033 14.8582 18.1033C15.926 18.1033 16.9938 18.1033 18.0617 18.105C18.1339 18.105 18.1786 18.0796 18.2188 18.0255C18.3186 17.892 18.4207 17.7637 18.5285 17.6216Z" fill="#2B70C8" />
            <path d="M14.2782 11.778C14.2782 11.8101 14.2782 11.8421 14.2782 11.8743C14.2782 12.3847 14.277 12.8934 14.2805 13.4038C14.2805 13.4866 14.2633 13.5187 14.1715 13.5136C14.0339 13.5051 13.8962 13.5103 13.7586 13.512C13.707 13.5136 13.6875 13.495 13.6875 13.4426C13.6898 12.6957 13.6898 11.9503 13.6875 11.2034C13.6875 11.156 13.7047 11.1375 13.7529 11.1375C14.0339 11.1392 14.316 11.1392 14.597 11.1375C14.6613 11.1375 14.6727 11.1763 14.6888 11.2186C14.8482 11.6664 15.0088 12.1142 15.1705 12.5622C15.1797 12.5875 15.1912 12.6112 15.2107 12.6584C15.2325 12.6078 15.2462 12.5773 15.2565 12.5469C15.4148 12.1041 15.5743 11.6614 15.7291 11.2186C15.7497 11.1577 15.7784 11.1358 15.8438 11.1358C16.1064 11.1392 16.3657 11.1392 16.6283 11.1358C16.7052 11.134 16.7247 11.1611 16.7247 11.2338C16.7224 11.9639 16.7224 12.6923 16.7247 13.4223C16.7247 13.4933 16.7017 13.5153 16.6318 13.512C16.4976 13.5069 16.3611 13.5069 16.2269 13.512C16.1489 13.5153 16.1305 13.4883 16.1305 13.4156C16.134 12.9001 16.1317 12.3847 16.1317 11.8692C16.1317 11.8371 16.1282 11.8067 16.1271 11.7746C16.1179 11.7729 16.1099 11.7712 16.103 11.7712C16.0904 11.8 16.0789 11.8287 16.0686 11.8591C15.8805 12.3779 15.6912 12.8951 15.5054 13.4156C15.4791 13.4883 15.4458 13.5187 15.3632 13.5136C15.2554 13.5051 15.1453 13.5069 15.0363 13.5136C14.9675 13.517 14.9342 13.495 14.9125 13.4308C14.7266 12.9086 14.5351 12.388 14.3459 11.8658C14.3332 11.8354 14.3218 11.805 14.3092 11.7746C14.2977 11.7746 14.2874 11.7763 14.2782 11.778Z" fill="#2B70C8" />
            <path d="M29.0071 12.5889C29.0071 12.5585 29.0071 12.5296 29.0071 12.4992C29.0071 12.0768 29.0095 11.6542 29.006 11.2318C29.006 11.1641 29.0232 11.1371 29.0966 11.1388C29.2377 11.1439 29.3776 11.1422 29.5187 11.1388C29.5795 11.1371 29.5978 11.1591 29.5978 11.2165C29.5967 11.9567 29.5967 12.697 29.5978 13.4373C29.5978 13.4913 29.5829 13.5133 29.5244 13.5115C29.326 13.5082 29.1276 13.5133 28.9303 13.5082C28.8936 13.5065 28.8466 13.4727 28.8259 13.4406C28.5369 13.0046 28.2524 12.5652 27.9669 12.1275C27.9393 12.0852 27.9095 12.043 27.8613 12.0041C27.8602 12.0345 27.8568 12.0649 27.8568 12.0954C27.8568 12.5382 27.8544 12.9792 27.8579 13.422C27.8579 13.4897 27.8407 13.5167 27.7673 13.515C27.6205 13.5099 27.4737 13.5115 27.328 13.515C27.2661 13.5167 27.25 13.493 27.25 13.4356C27.2523 12.6987 27.2523 11.9602 27.25 11.2234C27.25 11.1608 27.2695 11.1388 27.3349 11.1406C27.5379 11.1439 27.7432 11.1439 27.9462 11.1406C28.007 11.1388 28.0391 11.1624 28.0701 11.2098C28.3511 11.6408 28.6333 12.0717 28.9177 12.5009C28.9383 12.5331 28.9624 12.5635 28.9854 12.5956C28.9922 12.5922 28.9991 12.5906 29.0071 12.5889Z" fill="#2B70C8" />
            <path d="M23.9682 16.8254C24.2308 17.1143 24.4831 17.3931 24.7492 17.6855C24.5026 17.6855 24.2698 17.6872 24.0393 17.6822C24.0118 17.6822 23.9808 17.6501 23.9601 17.6264C23.7583 17.3949 23.5587 17.1633 23.3626 16.9284C23.3086 16.8642 23.2536 16.8254 23.1664 16.8388C23.1263 16.8439 23.0861 16.8405 23.0345 16.8405C23.0334 16.8743 23.0299 16.9048 23.0299 16.9335C23.0299 17.1566 23.0265 17.378 23.0311 17.601C23.0334 17.6687 23.0105 17.6889 22.9416 17.6872C22.804 17.6822 22.6664 17.6822 22.5287 17.6872C22.4473 17.6906 22.4198 17.6687 22.4221 17.5841C22.4255 16.9741 22.4232 16.3623 22.4232 15.7522C22.4232 15.6305 22.4255 15.5105 22.4221 15.3888C22.4198 15.3348 22.4393 15.3144 22.4955 15.3144C22.9577 15.3161 23.4188 15.3094 23.881 15.3178C24.2859 15.3263 24.5852 15.6322 24.599 16.0276C24.6116 16.4164 24.4212 16.6766 24.037 16.795C24.0198 16.8034 24.0026 16.8118 23.9682 16.8254ZM23.0299 16.3319C23.2708 16.3319 23.4968 16.3319 23.7227 16.3319C23.8856 16.3319 23.9945 16.2406 24.0026 16.097C24.0117 15.9634 23.8993 15.8383 23.7468 15.8333C23.5254 15.8249 23.3052 15.8299 23.085 15.8333C23.0655 15.8333 23.0311 15.862 23.0311 15.8773C23.0276 16.0242 23.0299 16.173 23.0299 16.3319Z" fill="#2B70C8" />
            <path d="M21.0183 12.6449C21.2809 12.9373 21.5344 13.2161 21.8017 13.5102C21.6434 13.5102 21.5023 13.4951 21.3658 13.5136C21.1398 13.5457 20.993 13.4595 20.8623 13.2838C20.7132 13.0809 20.5377 12.8985 20.3714 12.7075C20.3301 12.6585 20.1512 12.6247 20.103 12.6635C20.0858 12.6771 20.0789 12.7125 20.0789 12.7379C20.0778 12.966 20.0755 13.1942 20.0789 13.4223C20.0812 13.4916 20.0583 13.5152 19.986 13.5136C19.8518 13.5085 19.7153 13.5068 19.5811 13.5136C19.4951 13.5186 19.4813 13.4832 19.4825 13.4105C19.4859 13.0421 19.4848 12.6736 19.4848 12.3036C19.4848 11.9487 19.4859 11.5938 19.4825 11.2389C19.4825 11.1645 19.4997 11.1357 19.5834 11.1357C20.0216 11.1408 20.4609 11.1341 20.9001 11.1408C21.3314 11.1492 21.6193 11.4382 21.6514 11.8084C21.6893 12.2545 21.4209 12.5182 21.1181 12.6111C21.0905 12.6213 21.063 12.6314 21.0183 12.6449ZM20.4769 12.1565C20.5755 12.1565 20.6719 12.1565 20.7694 12.1565C20.7751 12.1565 20.782 12.1565 20.7866 12.1565C20.9449 12.1514 21.0561 12.0501 21.0561 11.908C21.0561 11.7678 20.9437 11.6563 20.79 11.6529C20.5755 11.6495 20.3611 11.6529 20.1466 11.6512C20.0927 11.6512 20.0778 11.6715 20.0778 11.7222C20.0789 11.8422 20.0812 11.9638 20.0778 12.0839C20.0755 12.1379 20.095 12.1583 20.1512 12.1565C20.2578 12.1548 20.3679 12.1565 20.4769 12.1565Z" fill="#2B70C8" />
            <path d="M17.1554 12.3216C17.1554 11.9583 17.1577 11.5949 17.1543 11.2316C17.1543 11.164 17.1715 11.1387 17.2461 11.1387C17.8436 11.1404 18.4389 11.1404 19.0365 11.1387C19.1041 11.1387 19.1282 11.1589 19.1248 11.2265C19.1202 11.3414 19.1202 11.458 19.1248 11.573C19.1271 11.6355 19.1064 11.6558 19.0399 11.6558C18.6442 11.6541 18.2485 11.6558 17.8517 11.6523C17.7725 11.6523 17.7415 11.6743 17.7484 11.7521C17.7542 11.8248 17.7519 11.8992 17.7484 11.9718C17.745 12.0378 17.7714 12.058 17.8379 12.058C18.221 12.0546 18.6018 12.0596 18.9837 12.0546C19.0663 12.0529 19.0961 12.0749 19.0904 12.1577C19.0835 12.2558 19.0892 12.3554 19.0892 12.4535C19.0892 12.5667 19.0892 12.5667 18.9699 12.5667C18.596 12.5667 18.2244 12.5684 17.8505 12.565C17.7679 12.5633 17.7438 12.592 17.7484 12.6681C17.7542 12.7407 17.7542 12.8151 17.7484 12.8878C17.7438 12.9621 17.7679 12.9909 17.8505 12.9891C18.2416 12.9841 18.6304 12.9891 19.0216 12.9858C19.1076 12.9841 19.1305 13.0128 19.1248 13.0923C19.1179 13.2106 19.1213 13.3289 19.1248 13.4472C19.1271 13.4996 19.1064 13.5165 19.0537 13.5148C18.4458 13.5131 17.8367 13.5131 17.2288 13.5148C17.1589 13.5148 17.1554 13.4809 17.1554 13.4303C17.1554 13.0602 17.1554 12.6918 17.1554 12.3216Z" fill="#2B70C8" />
            <path d="M15.7755 17.1583C15.9154 17.1583 16.0416 17.1583 16.1666 17.1583C16.4625 17.1583 16.7573 17.16 17.0544 17.1566C17.1175 17.1566 17.1404 17.1751 17.1381 17.2394C17.1347 17.3627 17.1347 17.4878 17.1381 17.6111C17.1404 17.6652 17.1232 17.6855 17.0647 17.6855C16.4557 17.6839 15.8466 17.6839 15.2387 17.6855C15.1848 17.6855 15.1699 17.6652 15.1699 17.6162C15.1711 16.8726 15.1711 16.129 15.1699 15.3855C15.1699 15.3348 15.1848 15.3145 15.2387 15.3145C15.8501 15.3161 16.4614 15.3161 17.0727 15.3145C17.1209 15.3145 17.1381 15.3331 17.1381 15.3804C17.137 15.5021 17.1335 15.622 17.1404 15.7437C17.1438 15.813 17.1163 15.8299 17.0509 15.8282C16.6598 15.8265 16.2699 15.8282 15.8787 15.8265C15.803 15.8265 15.7686 15.8434 15.7755 15.9245C15.7824 16.0006 15.7813 16.0766 15.7755 16.1527C15.7709 16.2253 15.7996 16.2439 15.8707 16.2439C16.2377 16.2423 16.6059 16.2423 16.9729 16.2423C17.1037 16.2423 17.1037 16.2423 17.1037 16.3691C17.1037 16.4569 17.0991 16.5448 17.106 16.6309C17.1129 16.7137 17.0888 16.7425 16.997 16.7408C16.6231 16.7357 16.2515 16.7408 15.8776 16.7374C15.8019 16.7374 15.7686 16.7527 15.7744 16.8338C15.7813 16.9386 15.7755 17.0416 15.7755 17.1583Z" fill="#2B70C8" />
            <path d="M25.477 17.159C25.5206 17.159 25.555 17.159 25.5871 17.159C25.9748 17.159 26.3625 17.1607 26.7502 17.1573C26.8155 17.1573 26.8431 17.1726 26.8396 17.2418C26.835 17.3652 26.8362 17.4902 26.8396 17.6137C26.8419 17.6694 26.819 17.6862 26.7639 17.6862C26.1572 17.6846 25.5527 17.6846 24.9471 17.6862C24.8852 17.6862 24.8691 17.6627 24.8691 17.6069C24.8714 16.8683 24.8714 16.1314 24.8691 15.3929C24.8691 15.3355 24.8863 15.3135 24.9471 15.3135C25.5527 15.3153 26.1572 15.3153 26.7639 15.3135C26.8213 15.3135 26.8396 15.3321 26.8385 15.3879C26.835 15.5062 26.8327 15.6245 26.8385 15.7428C26.8419 15.8104 26.8155 15.8289 26.7479 15.8289C26.3579 15.8256 25.9679 15.8306 25.5768 15.8256C25.4931 15.8239 25.4656 15.8493 25.4724 15.9304C25.4793 15.998 25.4793 16.0656 25.4724 16.1331C25.4633 16.2194 25.4931 16.2448 25.5803 16.2448C25.922 16.2396 26.2638 16.2431 26.6056 16.2431C26.8006 16.2431 26.8006 16.2431 26.8006 16.4341C26.8006 16.505 26.7949 16.576 26.8018 16.6452C26.8075 16.7179 26.7846 16.7433 26.7066 16.7416C26.3407 16.7382 25.9714 16.7399 25.6043 16.7399C25.4552 16.7399 25.4759 16.7263 25.4736 16.8734C25.4759 16.9647 25.477 17.0576 25.477 17.159Z" fill="#2B70C8" />
            <path d="M10.75 13.5132C10.8555 13.2716 10.9519 13.0468 11.0482 12.8237C11.281 12.2914 11.515 11.7607 11.7444 11.2284C11.7719 11.1641 11.8029 11.1371 11.8763 11.1388C12.0805 11.1439 12.2846 11.1439 12.4888 11.1388C12.5576 11.1371 12.5897 11.1624 12.6161 11.2216C12.9086 11.8993 13.2045 12.5753 13.4993 13.2513C13.536 13.3324 13.5704 13.4153 13.6128 13.5115C13.4499 13.5115 13.3031 13.5115 13.1552 13.5115C12.935 13.5115 12.935 13.5115 12.8535 13.3121C12.8294 13.253 12.7985 13.1939 12.7813 13.1313C12.7549 13.0451 12.709 13.0164 12.6138 13.0181C12.3076 13.0248 12.0013 13.0214 11.6928 13.0197C11.6309 13.0197 11.601 13.0384 11.5804 13.0958C11.538 13.2124 11.4875 13.3257 11.4428 13.4406C11.4244 13.4913 11.3957 13.5149 11.3361 13.5132C11.1468 13.5098 10.9576 13.5132 10.75 13.5132ZM12.5198 12.5094C12.4039 12.2288 12.2938 11.9636 12.1849 11.6999C12.1768 11.6999 12.1676 11.7016 12.1573 11.7016C12.0495 11.9686 11.9394 12.2339 11.827 12.5094C12.0667 12.5094 12.2812 12.5094 12.5198 12.5094Z" fill="#2B70C8" />
            <path d="M24.293 13.5129C24.3962 13.2746 24.4925 13.0566 24.5877 12.8369C24.8229 12.2962 25.0592 11.757 25.2931 11.2162C25.3184 11.1604 25.347 11.1401 25.4078 11.1401C25.6189 11.1435 25.8334 11.1418 26.0444 11.1401C26.096 11.1401 26.127 11.1537 26.1499 11.2044C26.4756 11.9547 26.8025 12.7034 27.1294 13.4538C27.1363 13.469 27.1397 13.4842 27.1489 13.5146C27.0124 13.5146 26.8851 13.5163 26.7578 13.5146C26.666 13.5129 26.5548 13.54 26.4894 13.4978C26.4252 13.4555 26.4068 13.3439 26.3724 13.2611C26.2738 13.0245 26.2761 13.0245 26.0169 13.0245C25.7531 13.0245 25.4881 13.0262 25.2243 13.0228C25.1715 13.0228 25.1417 13.0381 25.1234 13.0888C25.0786 13.207 25.027 13.3236 24.9823 13.442C24.9628 13.4926 24.9353 13.5163 24.8756 13.5146C24.6887 13.5095 24.4994 13.5129 24.293 13.5129ZM26.0616 12.509C25.9469 12.2285 25.8368 11.9632 25.7255 11.6979C25.7175 11.6996 25.7072 11.7013 25.698 11.703C25.5902 11.9683 25.4812 12.2336 25.3677 12.509C25.6074 12.509 25.8242 12.509 26.0616 12.509Z" fill="#2B70C8" />
            <path d="M31.3922 15.3179C31.3154 15.4868 31.2477 15.644 31.172 15.7978C31.1617 15.8181 31.1147 15.8282 31.0837 15.8299C30.766 15.8315 30.4471 15.8315 30.1283 15.8315C30.0078 15.8315 29.9299 15.8806 29.8989 15.9719C29.861 16.0801 29.9184 16.195 30.0285 16.2271C30.0709 16.2406 30.1179 16.244 30.1638 16.244C30.368 16.2474 30.5722 16.244 30.7763 16.2474C31.2064 16.2541 31.4645 16.5516 31.4427 16.9758C31.422 17.3458 31.1548 17.645 30.743 17.6737C30.6742 17.6787 30.6066 17.6856 30.5377 17.6873C30.1764 17.689 29.8152 17.6873 29.4527 17.689C29.3873 17.689 29.3598 17.6754 29.3632 17.6045C29.369 17.4844 29.369 17.3628 29.3632 17.241C29.3621 17.1769 29.3839 17.1599 29.4481 17.1599C29.8358 17.1616 30.2235 17.1616 30.61 17.1616C30.7591 17.1616 30.8451 17.089 30.8463 16.9656C30.8463 16.8388 30.7568 16.7611 30.6066 16.7595C30.4093 16.7595 30.2109 16.7645 30.0124 16.7578C29.7853 16.7493 29.5754 16.6901 29.4309 16.5025C29.0994 16.0732 29.3564 15.4294 29.8977 15.3381C29.9677 15.3263 30.0388 15.3212 30.1111 15.3196C30.5033 15.3179 30.8967 15.3196 31.2913 15.3196C31.3165 15.3179 31.3475 15.3179 31.3922 15.3179Z" fill="#2B70C8" />
            <path d="M29.1629 15.3179C29.0849 15.4885 29.0195 15.6406 28.945 15.7894C28.9335 15.8113 28.8865 15.8282 28.8544 15.8282C28.5321 15.8315 28.2121 15.8282 27.8898 15.8299C27.7315 15.8315 27.6432 15.9262 27.6604 16.0699C27.673 16.1763 27.7659 16.2423 27.907 16.244C28.1192 16.2457 28.3325 16.2405 28.5447 16.249C29.0597 16.2694 29.2696 16.6276 29.1985 17.0518C29.1354 17.4354 28.906 17.6399 28.508 17.672C28.2155 17.694 27.9185 17.6856 27.6225 17.689C27.4883 17.6906 27.3518 17.6856 27.2176 17.6906C27.1523 17.6923 27.1339 17.6687 27.1351 17.6078C27.1385 17.4861 27.1385 17.3661 27.1351 17.2444C27.1339 17.1819 27.1557 17.1616 27.2199 17.1616C27.6042 17.1633 27.9873 17.1599 28.3738 17.165C28.5046 17.1666 28.6078 17.0991 28.6147 16.9689C28.6215 16.8473 28.5217 16.7611 28.3772 16.7595C28.1788 16.7577 27.9804 16.7645 27.7831 16.7577C27.5939 16.7509 27.4104 16.7138 27.2693 16.5786C27.0491 16.3673 27.0146 16.1088 27.0926 15.8315C27.1718 15.5477 27.3828 15.3955 27.6673 15.3381C27.7349 15.3246 27.8037 15.3212 27.8726 15.3196C28.2648 15.3179 28.6582 15.3196 29.0528 15.3196C29.0838 15.3179 29.1147 15.3179 29.1629 15.3179Z" fill="#2B70C8" />
            <path d="M20.5415 16.9082C20.5415 17.143 20.5381 17.3661 20.5426 17.5876C20.5449 17.6652 20.522 17.6906 20.4417 17.6872C20.3018 17.6805 20.1607 17.6839 20.0196 17.6872C19.9588 17.6889 19.9336 17.6738 19.9336 17.6078C19.9347 16.8709 19.9347 16.1341 19.9336 15.3956C19.9336 15.3314 19.9554 15.3145 20.0173 15.3145C20.4704 15.3161 20.9234 15.3128 21.3765 15.3161C21.794 15.3195 22.1071 15.6356 22.1277 16.0446C22.1518 16.5026 21.8743 16.8101 21.4935 16.8812C21.4132 16.8963 21.3306 16.9047 21.248 16.9065C21.0186 16.9099 20.7858 16.9082 20.5415 16.9082ZM20.5415 16.3758C20.5759 16.3775 20.6023 16.3808 20.6264 16.3808C20.8328 16.3808 21.0393 16.3808 21.2457 16.3808C21.4132 16.3808 21.5256 16.2777 21.5325 16.119C21.5394 15.9668 21.4281 15.8366 21.2687 15.8299C21.045 15.8215 20.8202 15.8265 20.5965 15.8299C20.5782 15.8299 20.5426 15.8586 20.5426 15.8756C20.5392 16.0412 20.5415 16.2051 20.5415 16.3758Z" fill="#2B70C8" />
            <path d="M17.2188 17.6876C17.4 17.4662 17.5651 17.2618 17.7314 17.0572C17.8645 16.895 17.9953 16.7311 18.1317 16.5706C18.1742 16.5199 18.1765 16.486 18.1329 16.4337C17.8461 16.0839 17.5594 15.7306 17.2738 15.3791C17.2612 15.3638 17.2509 15.3487 17.2302 15.3217C17.2635 15.3183 17.2876 15.3149 17.3117 15.3149C17.5009 15.3149 17.6901 15.3166 17.8805 15.3131C17.9471 15.3114 17.9918 15.3334 18.0319 15.3858C18.1833 15.5835 18.3382 15.7797 18.4919 15.9757C18.5091 15.9977 18.5274 16.0162 18.5538 16.0432C18.6823 15.8793 18.8211 15.734 18.922 15.5667C19.0482 15.3605 19.2076 15.2777 19.4496 15.3131C19.5746 15.3318 19.7042 15.3166 19.8545 15.3166C19.7455 15.45 19.6526 15.565 19.5574 15.6799C19.3544 15.9283 19.1514 16.1751 18.9461 16.4218C18.9071 16.4692 18.9048 16.5013 18.9449 16.5503C19.2317 16.9001 19.5184 17.2534 19.804 17.6065C19.8212 17.6268 19.8373 17.6504 19.8648 17.6859C19.6847 17.6859 19.5219 17.6724 19.3613 17.6894C19.1789 17.7096 19.0654 17.6454 18.9656 17.4984C18.8383 17.3091 18.6857 17.135 18.5378 16.944C18.5125 16.9711 18.4896 16.9897 18.4724 17.0134C18.3141 17.2161 18.1558 17.4207 17.9987 17.6251C17.9666 17.6674 17.9333 17.6876 17.8783 17.6859C17.6661 17.6859 17.455 17.6876 17.2188 17.6876Z" fill="#2B70C8" />
            <path d="M24.2603 12.9861C24.1766 13.1635 24.102 13.3241 24.0252 13.483C24.016 13.4998 23.9816 13.5117 23.961 13.5117C23.4311 13.4914 22.9688 13.2548 22.8702 12.5873C22.8255 12.2831 22.8392 11.9806 22.986 11.7001C23.1707 11.3468 23.4804 11.1761 23.8692 11.1473C24.1181 11.1305 24.3693 11.144 24.617 11.1406C24.679 11.1389 24.7053 11.1576 24.703 11.2217C24.6996 11.3452 24.6996 11.4702 24.703 11.5936C24.7053 11.6594 24.6778 11.6747 24.617 11.673C24.445 11.6695 24.2729 11.6764 24.1009 11.6712C23.5871 11.6578 23.4104 12.0279 23.4494 12.4233C23.4563 12.4977 23.4758 12.5738 23.501 12.6447C23.5756 12.8458 23.7751 12.9827 23.9977 12.9878C24.0779 12.9878 24.1571 12.9861 24.2603 12.9861Z" fill="#2B70C8" />
            <path d="M22.5297 12.3372C22.5297 12.7005 22.5274 13.0622 22.5308 13.4255C22.5308 13.4897 22.5171 13.5168 22.4448 13.5134C22.306 13.5083 22.1649 13.5083 22.0227 13.5134C21.9527 13.5168 21.9355 13.4897 21.9355 13.4255C21.9367 12.6937 21.9367 11.9636 21.9355 11.2318C21.9355 11.1643 21.9527 11.1356 22.0262 11.1389C22.1649 11.144 22.3026 11.144 22.4402 11.1389C22.5136 11.1373 22.5308 11.1643 22.5308 11.2318C22.5274 11.6003 22.5297 11.9687 22.5297 12.3372Z" fill="#2B70C8" />
</svg>