<svg width="42" height="29" viewBox="0 0 42 29" fill="none" xmlns="http://www.w3.org/2000/svg">
	<path d="M34.6655 1.00049H7.3273C3.83283 1.00049 1 3.77175 1 7.19027V21.7939C1 25.2124 3.83283 27.9837 7.3273 27.9837H34.6655C38.16 27.9837 40.9928 25.2124 40.9928 21.7939V7.19027C40.9928 3.77175 38.16 1.00049 34.6655 1.00049Z" fill="white" stroke="#D7D7D7" stroke-width="0.519931" />
	<path fill-rule="evenodd" clip-rule="evenodd" d="M13.2404 19.1947H10.8483L9.05458 12.5C8.96936 12.1921 8.7886 11.9198 8.52273 11.7915C7.8591 11.469 7.12779 11.2124 6.33008 11.0829V10.8252H10.1835C10.7154 10.8252 11.1143 11.2124 11.1807 11.662L12.1115 16.4912L14.5024 10.8252H16.8281L13.2404 19.1947ZM18.1575 19.1947H15.8983L17.7586 10.8252H20.0177L18.1575 19.1947ZM22.9393 13.1427C23.0058 12.6919 23.4047 12.4342 23.87 12.4342C24.6013 12.3695 25.3979 12.4988 26.0627 12.8202L26.4616 11.0182C25.7968 10.7605 25.0655 10.6311 24.4019 10.6311C22.2092 10.6311 20.6137 11.7904 20.6137 13.3993C20.6137 14.6233 21.7438 15.266 22.5416 15.6532C23.4047 16.0393 23.7371 16.2971 23.6706 16.683C23.6706 17.2621 23.0058 17.52 22.3422 17.52C21.5445 17.52 20.7466 17.3269 20.0165 17.0044L19.6177 18.8075C20.4154 19.1289 21.2785 19.2583 22.0762 19.2583C24.5348 19.322 26.0627 18.1637 26.0627 16.4253C26.0627 14.2362 22.9393 14.1078 22.9393 13.1427ZM33.9704 19.1947L32.1767 10.8252H30.2499C29.851 10.8252 29.4522 11.0829 29.3192 11.469L25.9975 19.1947H28.3231L28.7873 17.9718H31.6449L31.9107 19.1947H33.9704ZM30.5816 13.0779L31.2453 16.2323H29.385L30.5816 13.0779Z" fill="#172B85" />
</svg>
